{
  "noCredentialsError": {
    "message": "You must specify at least the username or the email",
    "errors": {
      "credentials": {
        "name": "ValidatorError",
        "message": "missing username/email.",
        "value": null
      }
    },
    "name": "ValidationError"
  },
  "noAuthSpecified": {
    "message": "You did not send an auth token.",
    "errors": {
      "credentials": {
        "name": "AuthError",
        "message": "no token.",
        "value": null
      }
    },
    "name": "LoginError"
  },
  "bearerNotFound": {
    "message": "Your user have been deleted",
    "errors": {
      "credentials": {
        "name": "LoginError",
        "message": "user deleted.",
        "value": null
      }
    },
    "name": "LoginError"
  },
  "notAuthorized": {
    "message": "You are not authorized to perform this action",
    "errors": {
      "credentials": {
        "name": "AuthError",
        "message": "user not authorized.",
        "value": null
      }
    },
    "name": "AuthError"
  }
}
